-------------------------------------------------------------------------------
Test set: com.tsg.classRoster.ClassRosterDAOJUnitTest
-------------------------------------------------------------------------------
Tests run: 1, Failures: 0, Errors: 0, Skipped: 0, Time elapsed: 11.446 sec
