/home/apprentice/Documents/_repos/week6-ward-na/FlooringMasterySpring/src/main/java/com/tsg/flooringmasteryspring/ui/ConsoleIO.java
/home/apprentice/Documents/_repos/week6-ward-na/FlooringMasterySpring/src/main/java/com/tsg/flooringmasteryspring/interfaces/ProductInterface.java
/home/apprentice/Documents/_repos/week6-ward-na/FlooringMasterySpring/src/main/java/com/tsg/flooringmasteryspring/operations/BusinessLogic.java
/home/apprentice/Documents/_repos/week6-ward-na/FlooringMasterySpring/src/main/java/com/tsg/flooringmasteryspring/dto/Product.java
/home/apprentice/Documents/_repos/week6-ward-na/FlooringMasterySpring/src/main/java/com/tsg/flooringmasteryspring/interfaces/TaxesInterface.java
/home/apprentice/Documents/_repos/week6-ward-na/FlooringMasterySpring/src/main/java/com/tsg/flooringmasteryspring/dao/OrdersDAO.java
/home/apprentice/Documents/_repos/week6-ward-na/FlooringMasterySpring/src/main/java/com/tsg/flooringmasteryspring/dao/TaxesDAO.java
/home/apprentice/Documents/_repos/week6-ward-na/FlooringMasterySpring/src/main/java/com/tsg/flooringmasteryspring/dto/Order.java
/home/apprentice/Documents/_repos/week6-ward-na/FlooringMasterySpring/src/main/java/com/tsg/flooringmasteryspring/dao/ProductDAO.java
/home/apprentice/Documents/_repos/week6-ward-na/FlooringMasterySpring/src/main/java/com/tsg/flooringmasteryspring/operations/AuditAspect.java
/home/apprentice/Documents/_repos/week6-ward-na/FlooringMasterySpring/src/main/java/com/tsg/flooringmasteryspring/dto/Taxes.java
/home/apprentice/Documents/_repos/week6-ward-na/FlooringMasterySpring/src/main/java/com/tsg/flooringmasteryspring/operations/FlooringMasterController.java
/home/apprentice/Documents/_repos/week6-ward-na/FlooringMasterySpring/src/main/java/com/tsg/flooringmasteryspring/operations/App.java
/home/apprentice/Documents/_repos/week6-ward-na/FlooringMasterySpring/src/main/java/com/tsg/flooringmasteryspring/interfaces/OrdersInterface.java
/home/apprentice/Documents/_repos/week6-ward-na/FlooringMasterySpring/src/main/java/com/tsg/flooringmasteryspring/operations/TimingAspect.java
