com/tsg/dvdv3/ui/ConsoleIO.class
com/tsg/dvdv3/dao/DVDLibraryImpl.class
com/tsg/dvdv3/dao/DVDLibraryDAO.class
com/tsg/dvdv3/DVDLibraryController.class
com/tsg/dvdv3/dto/DVD.class
com/tsg/dvdv3/dao/DVDLibraryV2Interface.class
com/tsg/dvdv3/App.class
