1,Tom,OH,6.25,Laminate,1000.0,2.1,1.75,3.85,2100.0,1750.0,240.625,4090.625
2,Jack,IN,6.5,Carpet,100.0,5.0,2.0,10.0,100.0,200.0,78.0,2000.0
3,Bill,IN,6.5,Carpet,100.0,5.0,2.0,10.0,100.0,200.0,78.0,2000.0
4,Ralph,IN,6.5,Carpet,100.0,5.0,2.0,10.0,100.0,200.0,78.0,2000.0
