[2016-03-23T10:05:59.478] run duration is 1885 ms.[2016-03-23T10:07:00.164] run duration is 1029 ms.[2016-03-23T10:38:08.778] run duration is 1412 ms.
[2016-03-23T10:38:09.951] run duration is 1127 ms.
[2016-03-23T10:38:26.256] run duration is 1547 ms.
[2016-03-23T10:38:27.869] run duration is 1539 ms.
[2016-03-23T10:42:19.034] run duration is 1539 ms.
[2016-03-23T10:42:21.035] run duration is 1922 ms.
[2016-03-23T10:43:33.482] run duration is 1864 ms.
[2016-03-23T10:43:35.193] run duration is 1635 ms.
[2016-03-23T10:44:15.852] run duration is 1254 ms.
[2016-03-23T10:44:17.357] run duration is 1438 ms.
[2016-03-23T10:56:06.404] run duration is 209563 ms.
